{
    "fields": [
        {
            "name": "title",
            "type": "string"
        },
        {
            "name": "desc",
            "type": "string"
        }
    ],
    "validations": [
      {
          "field": "title",
          "rules": "required"
      },
      {
          "field": "desc",
          "rules": "required"
      }
    ]
}
